<svg xmlns="http://www.w3.org/2000/svg" xmlns:xlink="http://www.w3.org/1999/xlink" width="256" height="40" viewBox="0 0 256 40">
  <defs>
    <clipPath id="clip-path">
      <rect id="Rectangle_2" data-name="Rectangle 2" width="171.247" height="25.896" fill="none"/>
    </clipPath>
  </defs>
  <g id="Group_96" data-name="Group 96" transform="translate(-727 -902)">
    <g id="Group_94" data-name="Group 94" transform="translate(765.591 909.052)">
      <g id="Group_93" data-name="Group 93" transform="translate(0 0)" clip-path="url(#clip-path)">
        <path id="Path_1" data-name="Path 1" d="M262.155,18.926a3.5,3.5,0,0,1,1.749.8.984.984,0,0,1,.471.811,3.708,3.708,0,0,1-.243,1.709c-.207.513-.313,1.065-.5,1.588-.149.421-.355.822-.523,1.238a3.724,3.724,0,0,1-1.5,1.679,17.8,17.8,0,0,1-1.582.892,12.127,12.127,0,0,1-1.128.51,2.89,2.89,0,0,1-.654.161.342.342,0,0,1-.4-.188c-.092-.149-.389-.172-.692-.289a.944.944,0,0,1,.122-1.311c.049-.055.112-.127.176-.136.372-.055.429-.32.446-.624.042-.768.063-1.538.139-2.3.063-.638.188-1.271.294-1.905a1.767,1.767,0,0,0-.075-1.043,2.714,2.714,0,0,1,.016-1.152c.015-.191.107-.375.12-.566.047-.669.07-1.34.114-2.01.027-.425.067-.849.117-1.272a2.434,2.434,0,0,0-.373-1.394,1.6,1.6,0,0,1,.315-2.083,2.022,2.022,0,0,1,1.787-.59c.622.044,1.243.129,1.859.23a5.24,5.24,0,0,1,.874.268c.368.129.735.26,1.093.412a2.281,2.281,0,0,1,1.258,1.176,1.518,1.518,0,0,1,.05.988,11.328,11.328,0,0,1-.743,1.593,8.156,8.156,0,0,1-.621,1.052,5.16,5.16,0,0,1-1.7,1.377,2.558,2.558,0,0,0-.32.259Zm1.106,2.1c-.025-.043-.057-.169-.138-.226a8.056,8.056,0,0,0-1-.646,3.12,3.12,0,0,0-1.766-.042c-.034,0-.06.062-.1.085a6.031,6.031,0,0,0-.514.329c-.138.11-.319.238-.356.388a14.04,14.04,0,0,0-.245,1.422c-.048.348-.078.7-.1,1.05-.042.632-.09,1.264-.1,1.9-.005.334.072.669.1,1a1.717,1.717,0,0,1-.033.326c.147.013.32.081.436.027a13.374,13.374,0,0,0,1.7-.869,3.5,3.5,0,0,0,1.484-2.225c.11-.465.275-.917.393-1.381.089-.349.144-.708.228-1.139M259.6,17.894c-.014.523.171.658.5.526.695-.281,1.393-.556,2.077-.861a2.8,2.8,0,0,0,1.189-.932,4.645,4.645,0,0,0,.4-.83c.167-.389.333-.78.472-1.181a.531.531,0,0,0-.072-.348,1.107,1.107,0,0,0-.814-.492,3.07,3.07,0,0,0-1.248-.222,2.159,2.159,0,0,0-1.692,1.452c-.17.459-.3.932-.435,1.4-.15.545-.276,1.1-.372,1.484" transform="translate(-167.594 -7.463)" fill="#fff"/>
        <path id="Path_2" data-name="Path 2" d="M421.156,24.571c.339,0,.613.014.884,0a1.287,1.287,0,0,1,1.017.459,1.67,1.67,0,0,0,1.281.591c.274,0,.547.049.821.06.332.014.347-.278.374-.477.057-.435.041-.879.086-1.317.037-.365.118-.725.181-1.087.081-.464.144-.931.251-1.389a2.6,2.6,0,0,1,.322-.845.715.715,0,0,1,.8-.322c.286.082.563.231.608.563a6.312,6.312,0,0,1,.032.918c-.012,1.11-.015,2.22-.053,3.328-.021.633-.129,1.262-.146,1.894a8.04,8.04,0,0,0,.122,1.139q.04.344.081.688c.067.553.16,1.1.2,1.659a1.436,1.436,0,0,1-1.319,1.714,1.36,1.36,0,0,1-1.3-.56,2.786,2.786,0,0,1-.4-2.7c.146-.485.281-.972.447-1.548-.459-.02-.826-.043-1.192-.05a14.929,14.929,0,0,1-1.519-.023,9.015,9.015,0,0,1-1.261-.342c-.111-.031-.226-.047-.378-.078a5.281,5.281,0,0,1,0,.564c-.112.955-.255,1.906-.342,2.862a5.235,5.235,0,0,0,.11,2.052c.188.622-.182,1.063-.843,1.247-.192.053-.4-.142-.388-.38.044-1.054.089-2.108.159-3.16.027-.413.175-.821.176-1.232,0-1.34-.029-2.681-.064-4.02-.011-.413-.088-.824-.111-1.237-.041-.72-.094-1.441-.086-2.161a1.408,1.408,0,0,1,1.316-1.3,1.374,1.374,0,0,1,1.237,1.881c-.207.507-.486.984-.7,1.487-.153.352-.259.725-.4,1.128" transform="translate(-273.701 -13.093)" fill="#fff"/>
        <path id="Path_3" data-name="Path 3" d="M9.037,29.165l-.182-.394c-.1.239-.266.392-.029.614a.429.429,0,0,1-.032.412c-.333.366-.589.8-1.135.959a12.268,12.268,0,0,0-1.5.649.32.32,0,0,1-.129.021c-.57,0-1.14-.024-1.709,0a5.867,5.867,0,0,0-.8.148,3.758,3.758,0,0,1-.581.081.869.869,0,0,0-.828.621,4.818,4.818,0,0,0-.372,1.484,1.912,1.912,0,0,0,.708,1.371,2.3,2.3,0,0,0,2.332.421,6.453,6.453,0,0,0,1.172-.5c.287-.128.569-.269.86-.386a4.64,4.64,0,0,0,1.616-1.08,1.731,1.731,0,0,1,.666-.408c.234-.079.344.091.363.335.039.5-.326.762-.638,1.01a20.065,20.065,0,0,1-1.731,1.2c-.6.381-1.221.73-1.843,1.075-.374.207-.778.359-1.149.571a1.517,1.517,0,0,1-1.478-.053,3.483,3.483,0,0,1-1.612-1.271,8.383,8.383,0,0,1-.752-1.511,4.665,4.665,0,0,1-.111-1.069,5.464,5.464,0,0,0-.112-.7,2.16,2.16,0,0,1,.18-1.282c.125-.341.314-.659.436-1,.2-.572.381-1.153.563-1.733a3.632,3.632,0,0,0,.148-.6,5.839,5.839,0,0,1,.7-2.1,3.639,3.639,0,0,1,1.625-1.795,2.459,2.459,0,0,1,1.551-.024A7.651,7.651,0,0,1,7.845,25.6a2.841,2.841,0,0,1,.779.9,3.666,3.666,0,0,1,.615,2.1,5.314,5.314,0,0,1-.094.562l-.108,0M1.67,30.7l.068.1a3.527,3.527,0,0,0,.37-.059,5.626,5.626,0,0,1,.912-.246c.988-.082,1.98-.12,2.97-.182a2.32,2.32,0,0,0,.684-.1c.617-.24.91-.318.835-1.007a2.394,2.394,0,0,1,.024-.427,1.235,1.235,0,0,0-.346-1.014,3.584,3.584,0,0,0-1.008-.636A2.984,2.984,0,0,0,4.5,26.582a.789.789,0,0,0-.361.123A3.927,3.927,0,0,0,2.8,28.341c-.259.561-.513,1.123-.777,1.681-.109.23-.235.452-.353.678" transform="translate(0 -15.731)" fill="#fff"/>
        <path id="Path_4" data-name="Path 4" d="M120.835,30.192a1.935,1.935,0,0,1-1.02,1.28,3.908,3.908,0,0,1-1.181.338,19.421,19.421,0,0,1-2.276-.036,2.549,2.549,0,0,1-.913-.244.328.328,0,0,0-.468.145,1.262,1.262,0,0,0-.156,1.212c.144.36.235.741.379,1.1a1.514,1.514,0,0,0,1.641,1.055,4.487,4.487,0,0,0,1.624-.334,10.844,10.844,0,0,0,1.64-1.192,2.135,2.135,0,0,0,.252-.255c.183-.2.463-.271.605-.088a.669.669,0,0,1-.009.648c-.459.512-.981.967-1.479,1.445q-.326.313-.648.63a1.952,1.952,0,0,1-.985.6c-.49.1-.963.292-1.454.38a2.307,2.307,0,0,1-1.839-.5,5.657,5.657,0,0,1-1.421-1.878,5.147,5.147,0,0,1-.605-2.257,4.61,4.61,0,0,1,.624-2.67c.225-.381.351-.819.56-1.211a9.748,9.748,0,0,1,1.817-2.456,4.936,4.936,0,0,1,1.367-.973,2.485,2.485,0,0,1,1.766-.088,4.791,4.791,0,0,1,.888.352,2.322,2.322,0,0,1,1.009,1.191,11.732,11.732,0,0,1,.7,2,2.577,2.577,0,0,1-.145,1.708c-.031.067-.133.1-.2.151l-.07-.047m-3.066.646a2.633,2.633,0,0,0,.515-.006,5.468,5.468,0,0,0,.947-.254c.381-.151.376-.516.406-.858a3.6,3.6,0,0,0-.5-2.167.893.893,0,0,0-1.1-.444c-.074.018-.154.01-.23.022a2.031,2.031,0,0,0-1.2.451,1.252,1.252,0,0,1-.527.309,2.576,2.576,0,0,0-1.344,1.075.285.285,0,0,0,.027.245,5.434,5.434,0,0,0,.485.73,2.022,2.022,0,0,0,.7.652,3.031,3.031,0,0,0,1.815.244" transform="translate(-73.385 -16.121)" fill="#fff"/>
        <path id="Path_5" data-name="Path 5" d="M314.887,25.1c-.01-.012-.1-.077-.088-.113.2-.71.092-1.455.232-2.167.085-.432.3-.837.4-1.268a2.276,2.276,0,0,0-.019-.765c-.043-.342-.119-.68-.18-1.019l.1-.051.3.237a1.335,1.335,0,0,0-.2-.421.5.5,0,0,1-.06-.638,1.152,1.152,0,0,1,1.693-.306,2.477,2.477,0,0,1,.673,2.124,7.327,7.327,0,0,1-.236,1.187,1.826,1.826,0,0,0,.16,1.24,7.393,7.393,0,0,1,.314.852c.2.549.4,1.1.6,1.648s.394,1.1.606,1.65c.184.475.369.951.59,1.409.2.417.446.813.68,1.214a.811.811,0,0,0,.176.161.74.74,0,0,0,.112-.242q.116-2.3.219-4.608a4.533,4.533,0,0,1,.071-1.213,9.076,9.076,0,0,0,.18-2.159,7.687,7.687,0,0,0-.176-1.613c-.026-.214-.046-.428-.066-.618l.447-.025-.377-.327a1.23,1.23,0,0,1,1.143-.929,1.457,1.457,0,0,1,.9.188,1.054,1.054,0,0,1,.508.862,1.92,1.92,0,0,1-.56,1.634,3.5,3.5,0,0,0-.607,1.14,10.242,10.242,0,0,0-.292,1.124,16.564,16.564,0,0,0-.289,3.239c-.055.831-.1,1.664-.107,2.5a8.4,8.4,0,0,0,.12,1.541,11.225,11.225,0,0,0,.39,1.234,3.156,3.156,0,0,1,0,1.909.894.894,0,0,1-1.437.328,2.422,2.422,0,0,1-.517-.61.444.444,0,0,1,.092-.588c.136-.125.121-.416.11-.652l-.233.353-.078-.024c.029-.344.063-.688.084-1.033,0-.054-.052-.115-.088-.167a6.771,6.771,0,0,1-1.216-2.245,5.219,5.219,0,0,0-.308-.661,5.3,5.3,0,0,1-.153-.534,1.5,1.5,0,0,0-.079-.246,9.278,9.278,0,0,1-.736-2.446,2.875,2.875,0,0,0-.291-.706c-.215-.446-.439-.888-.666-1.328a1.135,1.135,0,0,0-.238-.336.268.268,0,0,0-.24.057,8.494,8.494,0,0,0-.27,1.036c-.171.965-.311,1.936-.484,2.9-.162.9-.3,1.811-.548,2.689a2.473,2.473,0,0,0,.114,1.593c.008.021.024.041.024.061a2.318,2.318,0,0,1-.429,1.782c-.113.119-.383.272-.435.23a2.01,2.01,0,0,1-.438-.576c-.037-.064.019-.191.05-.284.062-.191.166-.368-.057-.546a.414.414,0,0,1-.088-.34c.158-.849.34-1.692.5-2.54.078-.41.111-.828.187-1.239.053-.283.17-.556.215-.84s.012-.582.06-.866a7.257,7.257,0,0,1,.242-.835" transform="translate(-204.592 -11.958)" fill="#fff"/>
        <path id="Path_6" data-name="Path 6" d="M204.228,27.834c-.056.246-.12.54-.19.833a.536.536,0,0,1-.386.4.7.7,0,0,0-.307.42,1.638,1.638,0,0,1-.989,1.09c-.34.137-.626.407-.966.544a8.058,8.058,0,0,1-1.4.427c-.536.109-1.085.151-1.63.209-.191.02-.272.121-.223.282a10.194,10.194,0,0,0,.362,1.029,3.242,3.242,0,0,0,.339.58,1.6,1.6,0,0,0,1.477.8,17.989,17.989,0,0,0,2.071-.343c.21-.044.382-.26.592-.314a.623.623,0,0,1,.513.1.414.414,0,0,1-.086.6,2.788,2.788,0,0,1-.676.429c-.42.2-.859.353-1.285.536-.106.045-.191.135-.295.187-.534.274-1.059.665-1.7.446a4.768,4.768,0,0,1-1.235-.631,4.59,4.59,0,0,1-1.443-1.448c-.145-.266-.26-.548-.385-.825-.163-.362-.332-.721-.479-1.09a2.787,2.787,0,0,1-.225-.749,9.942,9.942,0,0,1-.045-1.542.911.911,0,0,1,.6-.76.66.66,0,0,0,.456-.594,5.114,5.114,0,0,1,.828-2.1,7.047,7.047,0,0,0,.566-1.148,2.308,2.308,0,0,1,2.513-1.705,4.15,4.15,0,0,1,2.641,1.548,5.34,5.34,0,0,1,.986,2.78m-4.888,2.44c.384-.07.77-.127,1.15-.214a8.056,8.056,0,0,0,.969-.28,2.033,2.033,0,0,0,.569-.313,1.34,1.34,0,0,0,.524-1.511,2.186,2.186,0,0,0-1.292-1.7,1.067,1.067,0,0,0-.986-.019,16.8,16.8,0,0,0-1.385,1,1.869,1.869,0,0,0-.447.509c-.251.427-.477.869-.692,1.315a.388.388,0,0,0,.027.335,1.723,1.723,0,0,0,1.564.873" transform="translate(-127.592 -15.307)" fill="#fff"/>
        <path id="Path_7" data-name="Path 7" d="M38.194,40.15c-.781-.339-.7-.729-.541-1.4.081-.334.2-.658.3-.988a.341.341,0,0,0,0-.13c-.082-.758-.159-1.516-.252-2.272-.085-.69-.221-1.375-.275-2.066-.069-.884-.078-1.772-.113-2.659.3-.419-.055-.845.011-1.276a7.265,7.265,0,0,0,.039-1.317c-.025-.746-.075-1.492-.121-2.237a.744.744,0,0,0-.668-.763,1.322,1.322,0,0,1-1.045-1.32,1.319,1.319,0,0,1,.156-.363c0-.061-.042-.165-.007-.224a2.45,2.45,0,0,1,2.759-.842.63.63,0,0,0,.405.045,9.9,9.9,0,0,1,2.547-.476,2.46,2.46,0,0,1,2.329,1.177A3.264,3.264,0,0,1,44.4,24.3a2.488,2.488,0,0,1-.2,1.551,7.229,7.229,0,0,1-1.9,2.465c-.245.211-.495.42-.72.651a.365.365,0,0,0-.067.311c.164.482.173.57-.256.8a15.539,15.539,0,0,1-1.778.824,2.2,2.2,0,0,1-.85.053c-.28-.012-.4.057-.373.367.037.5,0,1.011.039,1.513.072.861.185,1.718.275,2.577.072.693.128,1.388.207,2.081a4,4,0,0,0,.152.628,1.87,1.87,0,0,1-.339,1.575,3.654,3.654,0,0,1-.4.449m5.213-15.46c-.023-.161.013-.378-.079-.472-.413-.423-.793-.906-1.479-.921a5.8,5.8,0,0,0-2.016.425,1.617,1.617,0,0,0-.634.386,2.523,2.523,0,0,0-.626,1.535c-.077.818-.075,1.645-.083,2.468a.649.649,0,0,0,.845.631,7.693,7.693,0,0,0,.889-.309,2.823,2.823,0,0,0,.721-.36A11.2,11.2,0,0,0,42.367,26.8a2.922,2.922,0,0,0,1.041-2.111" transform="translate(-23.173 -14.255)" fill="#fff"/>
        <path id="Path_8" data-name="Path 8" d="M287.708,29.322c.218-.311.157-.5-.16-.553l.059-.32-.065.018c-.057-.1-.168-.2-.164-.3.028-.6.082-1.2.128-1.8a6.065,6.065,0,0,1,.081-.952,13.5,13.5,0,0,1,1.378-3.8,3.678,3.678,0,0,0,.62-2.622,2.9,2.9,0,0,1,0-.441l.25.263a.943.943,0,0,0,.012-.272,1,1,0,0,1,.509-1.237,4.816,4.816,0,0,1,.755-.249.2.2,0,0,1,.161.014c.377.335.825.139,1.242.184a2.763,2.763,0,0,1,1.69,1.028,3.209,3.209,0,0,1,.572.776,2.537,2.537,0,0,1,.3,1.913,6.3,6.3,0,0,0-.05,1.444c-.038.823-.057,1.649-.152,2.466a9.976,9.976,0,0,1-.4,1.845c-.09.286-.376.507-.562.766-.382.53-.756,1.066-1.133,1.6a6.246,6.246,0,0,1-2,1.822,2.331,2.331,0,0,1-2.488-.436,1.5,1.5,0,0,1-.268-.721c-.026-.229-.037-.408-.315-.435m.552-2.621a4.839,4.839,0,0,0,.556,2.32c.2.371.766.824,1.125.719a3.188,3.188,0,0,0,1.272-.618,10.533,10.533,0,0,0,1.742-2.515.376.376,0,0,0,.04-.188c.011-.913,0-1.827.034-2.739a14.185,14.185,0,0,1,.188-1.943,1.6,1.6,0,0,0-.751-1.58,11.539,11.539,0,0,0-1.289-.364.431.431,0,0,0-.339.079,2.529,2.529,0,0,0-.536.611c-.148.273-.182.606-.318.888-.218.451-.519.864-.713,1.324a13.66,13.66,0,0,0-.691,1.969c-.166.664-.218,1.357-.32,2.038" transform="translate(-187.44 -11.119)" fill="#fff"/>
        <path id="Path_9" data-name="Path 9" d="M386.952,25.146v.528c0,.241.011.447.342.489.2.025.237.216.2.42a3.709,3.709,0,0,0-.079.893c.038.422.154.836.227,1.256a1.061,1.061,0,0,0,.851.868c.518.119,1.03.268,1.539.423a.892.892,0,0,0,1.013-.327,13.878,13.878,0,0,0,.886-1.074.928.928,0,0,0,.088-.6,1.638,1.638,0,0,1,.531-1.416.792.792,0,0,1,.988-.165,1.466,1.466,0,0,1,.862,1.858,5.8,5.8,0,0,1-.765,1.077,2.942,2.942,0,0,1-1.412.9,16.947,16.947,0,0,0-1.994,1.391,2.164,2.164,0,0,1-2.337-.054c-.271-.269-.629-.452-.893-.727-.121-.126-.112-.378-.159-.573s-.086-.411-.146-.611c-.066-.218-.172-.425-.226-.646-.122-.5-.234-.993-.33-1.494a8.6,8.6,0,0,1-.281-2.6,7.347,7.347,0,0,1,.944-3.025c.26-.437.367-.969.646-1.389a17.225,17.225,0,0,1,1.348-1.694,2.914,2.914,0,0,1,1.723-.964,3.505,3.505,0,0,1,1.533.281,8.693,8.693,0,0,1,.828.354,1.952,1.952,0,0,1,1.13,1.253,3.522,3.522,0,0,1,.177.521,1.147,1.147,0,0,1-.595,1.171,1.19,1.19,0,0,1-1.483-.285,6.344,6.344,0,0,0-.4-.516,1.308,1.308,0,0,0-.476-.234,2.63,2.63,0,0,0-2.785.8,7.187,7.187,0,0,0-.529.922c-.2.346-.4.685-.592,1.036a1.972,1.972,0,0,0-.192.507c-.1.476-.187.956-.278,1.434l.086.014" transform="translate(-251.658 -11.652)" fill="#fff"/>
        <path id="Path_10" data-name="Path 10" d="M472.89,21.074a3.747,3.747,0,0,1,2.948,1.35,2.024,2.024,0,0,1,.584,1.539,1.511,1.511,0,0,1-.871,1.246,1.443,1.443,0,0,1-1.528-.323c-.28-.222-.536-.473-.812-.7a1.257,1.257,0,0,0-1.614-.01,4.321,4.321,0,0,0-1.376,1.156,5.5,5.5,0,0,0-.955,1.777,7.99,7.99,0,0,0-.117,3.024,8.676,8.676,0,0,0,.415,1.7c.462,1.2,1.488,1.022,2.158.426a6.187,6.187,0,0,0,.752-.971,1.234,1.234,0,0,1,2.1.161.561.561,0,0,1-.17.793,16.846,16.846,0,0,1-1.574,1.026c-.564.3-1.175.512-1.767.76a.28.28,0,0,1-.127.029,2.473,2.473,0,0,1-1.7-.559c-.121-.125-.3-.207-.384-.351a4.168,4.168,0,0,1-.426-.967c-.157-.614-.262-1.243-.372-1.869a6.821,6.821,0,0,1-.151-1.17,7.137,7.137,0,0,1,.134-1.392c.136-.682.319-1.355.5-2.026a9.622,9.622,0,0,1,1.173-2.236,7,7,0,0,1,1.447-1.69,2.39,2.39,0,0,1,1.728-.724" transform="translate(-305.187 -13.74)" fill="#fff"/>
        <path id="Path_11" data-name="Path 11" d="M85.11,30.536a5.159,5.159,0,0,1,.333-2.373c.265-.795.557-1.582.882-2.354a3.332,3.332,0,0,1,5.684-.618,1.309,1.309,0,0,1-.464,2.062,1.59,1.59,0,0,1-.965.037,2.166,2.166,0,0,1-.76-.36.945.945,0,0,0-1.287-.03,4.9,4.9,0,0,0-1.945,2.212,2.952,2.952,0,0,0-.391,2.019c.034.121-.083.279-.066.412a6.257,6.257,0,0,0,.208,1.119,4.736,4.736,0,0,0,.463.967,1.591,1.591,0,0,0,1.491.878,5.08,5.08,0,0,0,2.825-1c.21-.146.32-.43.52-.6a.544.544,0,0,1,.46-.078c.156.059.343.217.243.437a1.874,1.874,0,0,1-.4.651,6.767,6.767,0,0,1-1.966,1.11,5.748,5.748,0,0,1-2.67.386,1.209,1.209,0,0,1-1.021-.717c-.262-.512-.441-1.068-.719-1.569a4.629,4.629,0,0,1-.458-2.592" transform="translate(-55.49 -15.548)" fill="#fff"/>
        <path id="Path_12" data-name="Path 12" d="M453.007,22.095c-.171-.224.1-.79.551-.91a1.046,1.046,0,0,1,1.4.758,16.465,16.465,0,0,1,.153,2.446c-.018.852-.15,1.7-.239,2.553-.1,1-.2,2.005-.329,3a7.459,7.459,0,0,0,.5,3.339,1.921,1.921,0,0,1-.939,2.3c-.742.288-1.365-.172-1.629-.994a7.857,7.857,0,0,1-.229-3.387c.133-1.089.39-2.163.584-3.245a10.431,10.431,0,0,0,.339-3.974c-.093-.458-.193-.916-.261-1.378a1.771,1.771,0,0,1,.1-.512" transform="translate(-294.918 -13.787)" fill="#fff"/>
        <path id="Path_13" data-name="Path 13" d="M148.346,26.519c.278-.364.53-.752.84-1.087A2.369,2.369,0,0,1,153,25.282a.917.917,0,0,1,.106.6.359.359,0,0,1-.621.147,1.244,1.244,0,0,0-1.425-.447.954.954,0,0,0-.538.355,10.126,10.126,0,0,0-.837,1.567,10.1,10.1,0,0,0-.612,3.44,2.609,2.609,0,0,1-.18.9.836.836,0,0,1-.461.457c-.216.057-.2.169-.246.309a2.047,2.047,0,0,1-.221.371c-.113-.081-.287-.14-.328-.248a4.777,4.777,0,0,1-.307-1.083,6.536,6.536,0,0,1-.031-1.413c.057-.6.2-1.184.292-1.778a2.643,2.643,0,0,0,.03-.654,6.163,6.163,0,0,0-.184-1.2,13.286,13.286,0,0,1-.265-2.739c-.041-.435-.119-.867-.185-1.3a.467.467,0,0,0-.079-.176c-.161-.244-.479-.393-.432-.767.008-.065-.15-.142-.212-.227-.034-.048-.059-.166-.035-.184.283-.214-.069-.542.166-.783a1.054,1.054,0,0,1,1.178-.374,1.262,1.262,0,0,1,.939,1.162,5.2,5.2,0,0,1-.241,1.977,1.741,1.741,0,0,0-.023.589c-.013.759-.029,1.518-.035,2.276a3.592,3.592,0,0,0,.049.445l.084.015" transform="translate(-95.371 -13.037)" fill="#fff"/>
        <path id="Path_14" data-name="Path 14" d="M69.343,33.565l-.331.12a.329.329,0,0,1-.034-.1,1.689,1.689,0,0,1,.81-1.611,1.452,1.452,0,0,1,2.039.733,1.208,1.208,0,0,1-.349,1.405,2.414,2.414,0,0,0-.582,1,12.008,12.008,0,0,0-.37,1.849c-.1.77-.142,1.548-.223,2.321-.033.315-.131.624-.156.939-.034.428-.461.551-.642.87-.1.18-.5-.064-.549-.369a.809.809,0,0,1,.01-.456,3.877,3.877,0,0,0,.176-1.617c.056-1.046.127-2.092.184-3.138a2.836,2.836,0,0,0-.006-.951,1.775,1.775,0,0,1,.023-1" transform="translate(-44.957 -20.743)" fill="#fff"/>
        <path id="Path_15" data-name="Path 15" d="M7.8,5.217l-.377-.158a1.305,1.305,0,0,1,.206-.439,2.172,2.172,0,0,1,.512-.267A4.275,4.275,0,0,0,9.639,2.9c.175-.246.378-.474.528-.733.322-.555.606-1.131.928-1.686a1.072,1.072,0,0,1,1.379-.36,1.023,1.023,0,0,1,.217,1.465.393.393,0,0,0-.059.341c.244.385.245.515-.175.757a3.489,3.489,0,0,0-1.424,1.778A4.043,4.043,0,0,1,9.707,5.984a2.056,2.056,0,0,1-1.7.224c-.389-.05-.513-.459-.291-.889a.516.516,0,0,1,.084-.1m1.8-1.456c-.405.274-.788.53-1.165.8-.027.019,0,.109,0,.171.685-.128,1.163-.51,1.168-.967" transform="translate(-4.843 0)" fill="#fff"/>
        <path id="Path_16" data-name="Path 16" d="M353.246,44.876c-.449.089-.907.144-1.343.274-.7.21-1.054-.078-1.356-.744a1.244,1.244,0,0,1,.244-1.493,1.167,1.167,0,0,1,1.2-.262c.4.168.806.331,1.216.473a1.656,1.656,0,0,0,.6.108c.546-.026,1.089-.1,1.634-.135.879-.059,1.758-.1,2.637-.154.065,0,.151-.015.194.019.12.1.271.194.319.325.093.252-.17.37-.315.418a8.817,8.817,0,0,1-1.679.6c-1.026.131-2.033.4-3.05.612a2.039,2.039,0,0,1-.3.018l-.009-.057" transform="translate(-228.547 -27.773)" fill="#fff"/>
        <path id="Path_17" data-name="Path 17" d="M176.636,29.384a1.213,1.213,0,0,1,.733-1.514c.323-.11,1.3.141,1.343.439a2.575,2.575,0,0,1-.066,1.195,13.13,13.13,0,0,1-.694,1.282,1.615,1.615,0,0,0-.142.725c.028.84.1,1.677.141,2.516q.055,1.021.095,2.042c.022.536.047,1.073.044,1.609a.714.714,0,0,1-.405.7c-.044.021-.072.079-.1.123-.2.292-.3.3-.458-.015a1.93,1.93,0,0,1-.1-1.463,3.17,3.17,0,0,0,.136-.979c-.025-1.184-.071-2.369-.129-3.552-.045-.927-.112-1.854-.189-2.779-.009-.115-.136-.22-.209-.33" transform="translate(-115.17 -18.161)" fill="#fff"/>
        <path id="Path_18" data-name="Path 18" d="M179.955.948a1.492,1.492,0,0,1,1.283.939,1.494,1.494,0,0,1-.322,1.5,1.348,1.348,0,0,0-.2.4c-.093.341-.158.707-.588.765-.364.049-.683-.27-.861-.686a7.773,7.773,0,0,1-.483-1.305,1.2,1.2,0,0,1,1.174-1.61" transform="translate(-116.578 -0.615)" fill="#fff"/>
        <path id="Path_19" data-name="Path 19" d="M72.9,10.586a.958.958,0,0,1-.112.37A3.051,3.051,0,0,0,72.34,12.6a.6.6,0,0,1-.62.578c-.121-.013-.308-.112-.334-.207-.183-.684-.337-1.376-.484-2.069-.015-.07.076-.162.115-.245.026-.055.083-.132.065-.163-.245-.412.126-.61.329-.8a.807.807,0,0,1,1.052-.01,1,1,0,0,1,.434.9" transform="translate(-46.244 -6.192)" fill="#fff"/>
      </g>
    </g>
    <path id="Rectangle_3" data-name="Rectangle 3" d="M20,1a19.005,19.005,0,0,0-7.4,36.507A18.881,18.881,0,0,0,20,39H236a19.005,19.005,0,0,0,7.4-36.507A18.881,18.881,0,0,0,236,1H20m0-1H236a20,20,0,0,1,0,40H20A20,20,0,0,1,20,0Z" transform="translate(727 902)" fill="#fff"/>
    <g id="Group_95" data-name="Group 95" transform="translate(-18 2)">
      <path id="Line_132" data-name="Line 132" d="M8.646,9.354l-9-9L.354-.354l9,9Z" transform="translate(977.5 911.5)" fill="#fff"/>
      <path id="Line_133" data-name="Line 133" d="M.354,9.354l-.707-.707,9-9,.707.707Z" transform="translate(977.5 919.5)" fill="#fff"/>
    </g>
  </g>
</svg>
